["blogilo",
 "jovie",
 "kfilereplace",
 "klinkstatus",
 "knemo",
 "knode",
 "kppp",
 "kremotecontrol",
 "kuser",
 "simon",
 "kaudiocreator",
 "karbon",
 "calligragemini",
 "ksame",
 "ksnapshot",
 "kftpgrabber",
 "kmldonkey",
 "kwlan",
 "kmid",
 "kscd",
 "kappfinder",
 "kioskadmintool",
 "ksig",
 "kpager",
 "krecipes",
 "kst-plot",
 "kst",
 "braindump",
 "amarok",
 "isoimagewriter"
]
